Dataset;Filename;Format;ID;Title;Rows;Columns;Encoding
dasD1;data.csv;csv;21;A Dataset test; 3; 3;uft-8
dasD2;data2.csv;csv;22;A Dataset test; 3; 3;uft-8
dasD3;data3.csv;csv;23;A Dataset test; 3; 3;uft-8
dasD4;data4.csv;csv;24;A Dataset test; 3; 3;uft-8
